[1537168032.785][INFO]: COMMAND InitSession {
   "desiredCapabilities": {
      "browserName": "chrome",
      "chromeOptions": {
         "args": [  ],
         "extensions": [  ]
      },
      "platform": "ANY",
      "version": ""
   }
}
[1537168032.794][INFO]: Populating Preferences file: {
   "alternate_error_pages": {
      "enabled": false
   },
   "autofill": {
      "enabled": false
   },
   "browser": {
      "check_default_browser": false
   },
   "distribution": {
      "import_bookmarks": false,
      "import_history": false,
      "import_search_engine": false,
      "make_chrome_default_for_user": false,
      "skip_first_run_ui": true
   },
   "dns_prefetching": {
      "enabled": false
   },
   "profile": {
      "content_settings": {
         "pattern_pairs": {
            "https://*,*": {
               "media-stream": {
                  "audio": "Default",
                  "video": "Default"
               }
            }
         }
      },
      "default_content_setting_values": {
         "geolocation": 1
      },
      "default_content_settings": {
         "geolocation": 1,
         "mouselock": 1,
         "notifications": 1,
         "popups": 1,
         "ppapi-broker": 1
      },
      "password_manager_enabled": false
   },
   "safebrowsing": {
      "enabled": false
   },
   "search": {
      "suggest_enabled": false
   },
   "translate": {
      "enabled": false
   }
}
[1537168032.797][INFO]: Populating Local State file: {
   "background_mode": {
      "enabled": false
   },
   "ssl": {
      "rev_checking": {
         "enabled": false
      }
   }
}
[1537168032.830][INFO]: Launching chrome: "C:\Program Files (x86)\Google\Chrome\Application\chrome.exe" --disable-background-networking --disable-client-side-phishing-detection --disable-default-apps --disable-hang-monitor --disable-popup-blocking --disable-prompt-on-repost --disable-sync --disable-web-resources --enable-automation --enable-logging --force-fieldtrials=SiteIsolationExtensions/Control --ignore-certificate-errors --load-extension="C:\Users\YUGAND~1\AppData\Local\Temp\scoped_dir6708_8337\internal" --log-level=0 --metrics-recording-only --no-first-run --password-store=basic --remote-debugging-port=12666 --test-type=webdriver --use-mock-keychain --user-data-dir="C:\Users\YUGAND~1\AppData\Local\Temp\scoped_dir6708_24203" data:,
[1537168034.928][INFO]: resolved localhost to ["127.0.0.1","::1"]
[1537168037.447][INFO]: RESPONSE InitSession {
   "acceptInsecureCerts": false,
   "acceptSslCerts": false,
   "applicationCacheEnabled": false,
   "browserConnectionEnabled": false,
   "browserName": "chrome",
   "chrome": {
      "chromedriverVersion": "2.35.528161 (5b82f2d2aae0ca24b877009200ced9065a772e73)",
      "userDataDir": "C:\\Users\\YUGAND~1\\AppData\\Local\\Temp\\scoped_dir6708_24203"
   },
   "cssSelectorsEnabled": true,
   "databaseEnabled": false,
   "handlesAlerts": true,
   "hasTouchScreen": false,
   "javascriptEnabled": true,
   "locationContextEnabled": true,
   "mobileEmulationEnabled": false,
   "nativeEvents": true,
   "networkConnectionEnabled": false,
   "pageLoadStrategy": "normal",
   "platform": "Windows NT",
   "rotatable": false,
   "setWindowRect": true,
   "~~~": "..."
}
[1537168037.456][INFO]: COMMAND MaximizeWindow {
   "windowHandle": "current"
}
[1537168037.459][INFO]: resolved localhost to ["127.0.0.1","::1"]
[1537168037.618][INFO]: RESPONSE MaximizeWindow
[1537168037.625][INFO]: COMMAND ExecuteScript {
   "args": [  ],
   "script": "return document.readyState"
}
[1537168037.625][INFO]: Waiting for pending navigations...
[1537168037.628][INFO]: Done waiting for pending navigations. Status: ok
[1537168037.635][INFO]: Waiting for pending navigations...
[1537168037.655][INFO]: Done waiting for pending navigations. Status: ok
[1537168037.655][INFO]: RESPONSE ExecuteScript "complete"
[1537168037.664][INFO]: COMMAND SetTimeout {
   "ms": 20000,
   "type": "script"
}
[1537168037.664][INFO]: RESPONSE SetTimeout
[1537168037.669][INFO]: COMMAND Navigate {
   "url": "https://www.google.co.in"
}
[1537168037.669][INFO]: Waiting for pending navigations...
[1537168037.671][INFO]: Done waiting for pending navigations. Status: ok
[1537168038.411][INFO]: Waiting for pending navigations...
[1537168039.237][INFO]: Done waiting for pending navigations. Status: ok
[1537168039.237][INFO]: RESPONSE Navigate
[1537168039.244][INFO]: COMMAND GetTitle {

}
[1537168039.244][INFO]: Waiting for pending navigations...
[1537168039.251][INFO]: Done waiting for pending navigations. Status: ok
[1537168039.255][INFO]: Waiting for pending navigations...
[1537168039.256][INFO]: Done waiting for pending navigations. Status: ok
[1537168039.256][INFO]: RESPONSE GetTitle "Google"
[1537168039.263][INFO]: COMMAND FindElement {
   "using": "name",
   "value": "q"
}
[1537168039.263][INFO]: Waiting for pending navigations...
[1537168039.264][INFO]: Done waiting for pending navigations. Status: ok
[1537168039.281][INFO]: Waiting for pending navigations...
[1537168039.283][INFO]: Done waiting for pending navigations. Status: ok
[1537168039.283][INFO]: RESPONSE FindElement {
   "ELEMENT": "0.42560415798913587-1"
}
[1537168039.288][INFO]: COMMAND ClearElement {
   "id": "0.42560415798913587-1"
}
[1537168039.288][INFO]: Waiting for pending navigations...
[1537168039.289][INFO]: Done waiting for pending navigations. Status: ok
[1537168039.317][INFO]: Waiting for pending navigations...
[1537168039.319][INFO]: Done waiting for pending navigations. Status: ok
[1537168039.319][INFO]: RESPONSE ClearElement
[1537168039.323][INFO]: COMMAND GetElementAttribute {
   "id": "0.42560415798913587-1",
   "name": "value"
}
[1537168039.323][INFO]: Waiting for pending navigations...
[1537168039.325][INFO]: Done waiting for pending navigations. Status: ok
[1537168039.329][INFO]: Waiting for pending navigations...
[1537168039.330][INFO]: Done waiting for pending navigations. Status: ok
[1537168039.330][INFO]: RESPONSE GetElementAttribute ""
[1537168039.334][INFO]: COMMAND GetElementAttribute {
   "id": "0.42560415798913587-1",
   "name": "value"
}
[1537168039.334][INFO]: Waiting for pending navigations...
[1537168039.336][INFO]: Done waiting for pending navigations. Status: ok
[1537168039.340][INFO]: Waiting for pending navigations...
[1537168039.341][INFO]: Done waiting for pending navigations. Status: ok
[1537168039.341][INFO]: RESPONSE GetElementAttribute ""
[1537168039.346][INFO]: COMMAND GetElementAttribute {
   "id": "0.42560415798913587-1",
   "name": "value"
}
[1537168039.346][INFO]: Waiting for pending navigations...
[1537168039.351][INFO]: Done waiting for pending navigations. Status: ok
[1537168039.354][INFO]: Waiting for pending navigations...
[1537168039.356][INFO]: Done waiting for pending navigations. Status: ok
[1537168039.356][INFO]: RESPONSE GetElementAttribute ""
[1537168039.370][INFO]: COMMAND FindElement {
   "using": "name",
   "value": "q"
}
[1537168039.370][INFO]: Waiting for pending navigations...
[1537168039.372][INFO]: Done waiting for pending navigations. Status: ok
[1537168039.380][INFO]: Waiting for pending navigations...
[1537168039.381][INFO]: Done waiting for pending navigations. Status: ok
[1537168039.381][INFO]: RESPONSE FindElement {
   "ELEMENT": "0.42560415798913587-1"
}
[1537168039.386][INFO]: COMMAND TypeElement {
   "id": "0.42560415798913587-1",
   "value": [ "selenium" ]
}
[1537168039.386][INFO]: Waiting for pending navigations...
[1537168039.387][INFO]: Done waiting for pending navigations. Status: ok
[1537168039.659][INFO]: Waiting for pending navigations...
[1537168039.661][INFO]: Done waiting for pending navigations. Status: ok
[1537168039.661][INFO]: RESPONSE TypeElement
[1537168039.669][INFO]: COMMAND GetElementAttribute {
   "id": "0.42560415798913587-1",
   "name": "value"
}
[1537168039.669][INFO]: Waiting for pending navigations...
[1537168039.672][INFO]: Done waiting for pending navigations. Status: ok
[1537168039.676][INFO]: Waiting for pending navigations...
[1537168039.678][INFO]: Done waiting for pending navigations. Status: ok
[1537168039.678][INFO]: RESPONSE GetElementAttribute "selenium"
[1537168039.683][INFO]: COMMAND GetElementAttribute {
   "id": "0.42560415798913587-1",
   "name": "value"
}
[1537168039.683][INFO]: Waiting for pending navigations...
[1537168039.684][INFO]: Done waiting for pending navigations. Status: ok
[1537168039.696][INFO]: Waiting for pending navigations...
[1537168039.708][INFO]: Done waiting for pending navigations. Status: ok
[1537168039.708][INFO]: RESPONSE GetElementAttribute "selenium"
[1537168039.712][INFO]: COMMAND GetElementAttribute {
   "id": "0.42560415798913587-1",
   "name": "value"
}
[1537168039.713][INFO]: Waiting for pending navigations...
[1537168039.713][INFO]: Done waiting for pending navigations. Status: ok
[1537168039.727][INFO]: Waiting for pending navigations...
[1537168039.730][INFO]: Done waiting for pending navigations. Status: ok
[1537168039.730][INFO]: RESPONSE GetElementAttribute "selenium"
[1537168039.739][INFO]: COMMAND FindElement {
   "using": "name",
   "value": "btnK"
}
[1537168039.740][INFO]: Waiting for pending navigations...
[1537168039.741][INFO]: Done waiting for pending navigations. Status: ok
[1537168039.764][INFO]: Waiting for pending navigations...
[1537168039.765][INFO]: Done waiting for pending navigations. Status: ok
[1537168039.765][INFO]: RESPONSE FindElement {
   "ELEMENT": "0.42560415798913587-2"
}
[1537168039.770][INFO]: COMMAND IsElementDisplayed {
   "id": "0.42560415798913587-2"
}
[1537168039.770][INFO]: Waiting for pending navigations...
[1537168039.771][INFO]: Done waiting for pending navigations. Status: ok
[1537168039.787][INFO]: Waiting for pending navigations...
[1537168039.788][INFO]: Done waiting for pending navigations. Status: ok
[1537168039.788][INFO]: RESPONSE IsElementDisplayed true
[1537168039.792][INFO]: COMMAND FindElement {
   "using": "name",
   "value": "btnK"
}
[1537168039.792][INFO]: Waiting for pending navigations...
[1537168039.794][INFO]: Done waiting for pending navigations. Status: ok
[1537168039.800][INFO]: Waiting for pending navigations...
[1537168039.801][INFO]: Done waiting for pending navigations. Status: ok
[1537168039.801][INFO]: RESPONSE FindElement {
   "ELEMENT": "0.42560415798913587-2"
}
[1537168039.806][INFO]: COMMAND IsElementDisplayed {
   "id": "0.42560415798913587-2"
}
[1537168039.806][INFO]: Waiting for pending navigations...
[1537168039.807][INFO]: Done waiting for pending navigations. Status: ok
[1537168039.813][INFO]: Waiting for pending navigations...
[1537168039.815][INFO]: Done waiting for pending navigations. Status: ok
[1537168039.815][INFO]: RESPONSE IsElementDisplayed true
[1537168039.820][INFO]: COMMAND FindElement {
   "using": "name",
   "value": "btnK"
}
[1537168039.820][INFO]: Waiting for pending navigations...
[1537168039.821][INFO]: Done waiting for pending navigations. Status: ok
[1537168039.829][INFO]: Waiting for pending navigations...
[1537168039.830][INFO]: Done waiting for pending navigations. Status: ok
[1537168039.830][INFO]: RESPONSE FindElement {
   "ELEMENT": "0.42560415798913587-2"
}
[1537168039.834][INFO]: COMMAND IsElementEnabled {
   "id": "0.42560415798913587-2"
}
[1537168039.834][INFO]: Waiting for pending navigations...
[1537168039.835][INFO]: Done waiting for pending navigations. Status: ok
[1537168039.845][INFO]: Waiting for pending navigations...
[1537168039.846][INFO]: Done waiting for pending navigations. Status: ok
[1537168039.846][INFO]: RESPONSE IsElementEnabled true
[1537168039.850][INFO]: COMMAND FindElement {
   "using": "name",
   "value": "btnK"
}
[1537168039.850][INFO]: Waiting for pending navigations...
[1537168039.851][INFO]: Done waiting for pending navigations. Status: ok
[1537168039.857][INFO]: Waiting for pending navigations...
[1537168039.858][INFO]: Done waiting for pending navigations. Status: ok
[1537168039.858][INFO]: RESPONSE FindElement {
   "ELEMENT": "0.42560415798913587-2"
}
[1537168039.861][INFO]: COMMAND ClickElement {
   "id": "0.42560415798913587-2"
}
[1537168039.862][INFO]: Waiting for pending navigations...
[1537168039.863][INFO]: Done waiting for pending navigations. Status: ok
[1537168039.954][INFO]: Waiting for pending navigations...
[1537168042.866][INFO]: Done waiting for pending navigations. Status: ok
[1537168042.866][INFO]: RESPONSE ClickElement
[1537168042.876][INFO]: COMMAND GetElementAttribute {
   "id": "0.42560415798913587-2",
   "name": "outerHTML"
}
[1537168042.876][INFO]: Waiting for pending navigations...
[1537168042.877][INFO]: Done waiting for pending navigations. Status: ok
[1537168042.889][INFO]: Waiting for pending navigations...
[1537168042.897][INFO]: Done waiting for pending navigations. Status: ok
[1537168042.897][INFO]: RESPONSE GetElementAttribute stale element reference: element is not attached to the page document
  (Session info: chrome=69.0.3497.92)
[1537168042.904][INFO]: COMMAND FindElement {
   "using": "css selector",
   "value": "h3.r a"
}
[1537168042.904][INFO]: Waiting for pending navigations...
[1537168042.906][INFO]: Done waiting for pending navigations. Status: ok
[1537168042.926][INFO]: Waiting for pending navigations...
[1537168042.927][INFO]: Done waiting for pending navigations. Status: ok
[1537168042.927][INFO]: RESPONSE FindElement {
   "ELEMENT": "0.9131648743528438-1"
}
[1537168042.934][INFO]: COMMAND IsElementDisplayed {
   "id": "0.9131648743528438-1"
}
[1537168042.934][INFO]: Waiting for pending navigations...
[1537168042.936][INFO]: Done waiting for pending navigations. Status: ok
[1537168042.966][INFO]: Waiting for pending navigations...
[1537168042.968][INFO]: Done waiting for pending navigations. Status: ok
[1537168042.969][INFO]: RESPONSE IsElementDisplayed true
[1537168042.973][INFO]: COMMAND FindElement {
   "using": "css selector",
   "value": "h3.r a"
}
[1537168042.973][INFO]: Waiting for pending navigations...
[1537168042.975][INFO]: Done waiting for pending navigations. Status: ok
[1537168042.982][INFO]: Waiting for pending navigations...
[1537168042.984][INFO]: Done waiting for pending navigations. Status: ok
[1537168042.984][INFO]: RESPONSE FindElement {
   "ELEMENT": "0.9131648743528438-1"
}
[1537168042.998][INFO]: COMMAND GetElementText {
   "id": "0.9131648743528438-1"
}
[1537168042.998][INFO]: Waiting for pending navigations...
[1537168043.000][INFO]: Done waiting for pending navigations. Status: ok
[1537168043.044][INFO]: Waiting for pending navigations...
[1537168043.102][INFO]: Done waiting for pending navigations. Status: ok
[1537168043.102][INFO]: RESPONSE GetElementText "Selenium - Web Browser Automation"
[1537168043.110][INFO]: COMMAND FindElement {
   "using": "css selector",
   "value": "h3.r a"
}
[1537168043.110][INFO]: Waiting for pending navigations...
[1537168043.132][INFO]: Done waiting for pending navigations. Status: ok
[1537168043.147][INFO]: Waiting for pending navigations...
[1537168043.148][INFO]: Done waiting for pending navigations. Status: ok
[1537168043.148][INFO]: RESPONSE FindElement {
   "ELEMENT": "0.9131648743528438-1"
}
[1537168043.169][INFO]: COMMAND GetElementText {
   "id": "0.9131648743528438-1"
}
[1537168043.170][INFO]: Waiting for pending navigations...
[1537168043.171][INFO]: Done waiting for pending navigations. Status: ok
[1537168043.188][INFO]: Waiting for pending navigations...
[1537168043.189][INFO]: Done waiting for pending navigations. Status: ok
[1537168043.189][INFO]: RESPONSE GetElementText "Selenium - Web Browser Automation"
[1537168043.206][INFO]: COMMAND FindElement {
   "using": "css selector",
   "value": "h3.r a"
}
[1537168043.206][INFO]: Waiting for pending navigations...
[1537168043.209][INFO]: Done waiting for pending navigations. Status: ok
[1537168043.233][INFO]: Waiting for pending navigations...
[1537168043.235][INFO]: Done waiting for pending navigations. Status: ok
[1537168043.235][INFO]: RESPONSE FindElement {
   "ELEMENT": "0.9131648743528438-1"
}
[1537168043.238][INFO]: COMMAND GetElementAttribute {
   "id": "0.9131648743528438-1",
   "name": "outerHTML"
}
[1537168043.238][INFO]: Waiting for pending navigations...
[1537168043.240][INFO]: Done waiting for pending navigations. Status: ok
[1537168043.250][INFO]: Waiting for pending navigations...
[1537168043.251][INFO]: Done waiting for pending navigations. Status: ok
[1537168043.251][INFO]: RESPONSE GetElementAttribute "\u003Ca href=\"https://www.seleniumhq.org/\" ping=\"/url?sa=t&amp;source=web&amp;rct=j&amp;url=https://www.seleniumhq.org/&amp;ved=2ahUKEwjnreqXvcHdAhXhRd8KHQAzCAEQFjAAegQICxAB\">Selenium - Web Browser Auto..."
[1537168043.258][INFO]: COMMAND FindElement {
   "using": "css selector",
   "value": "h3.r a"
}
[1537168043.259][INFO]: Waiting for pending navigations...
[1537168043.260][INFO]: Done waiting for pending navigations. Status: ok
[1537168043.272][INFO]: Waiting for pending navigations...
[1537168043.284][INFO]: Done waiting for pending navigations. Status: ok
[1537168043.284][INFO]: RESPONSE FindElement {
   "ELEMENT": "0.9131648743528438-1"
}
[1537168043.301][INFO]: COMMAND CloseWindow {

}
[1537168046.099][INFO]: RESPONSE CloseWindow
